[
  {
    "codigo_collar":100026,
    "fecha_hora":1454929200000,
    "ritmo_Cardiaco":41,
    "ubicacion_actual_latitud":4.722848,
    "ubicacion_actual_longitud":-74.045455,
    "paso_puerta":"llego"
  },
  {
    "codigo_collar":100028,
    "fecha_hora":1454929500000,
    "ritmo_Cardiaco":104,
    "ubicacion_actual_latitud":4.723785,
    "ubicacion_actual_longitud":-74.048733,
    "paso_puerta":""
  },
  {
    "codigo_collar":100028,
    "fecha_hora":1454929800000,
    "ritmo_Cardiaco":44,
    "ubicacion_actual_latitud":4.719544,
    "ubicacion_actual_longitud":-74.046112,
    "paso_puerta":"llego"
  },
  {
    "codigo_collar":100007,
    "fecha_hora":1454930100000,
    "ritmo_Cardiaco":44,
    "ubicacion_actual_latitud":4.723302,
    "ubicacion_actual_longitud":-74.046243,
    "paso_puerta":"salio"
  },
  {
    "codigo_collar":100011,
    "fecha_hora":1454930400000,
    "ritmo_Cardiaco":69,
    "ubicacion_actual_latitud":4.719235,
    "ubicacion_actual_longitud":-74.048621,
    "paso_puerta":"llego"
  },
  {
    "codigo_collar":100055,
    "fecha_hora":1454930700000,
    "ritmo_Cardiaco":91,
    "ubicacion_actual_latitud":4.722245,
    "ubicacion_actual_longitud":-74.045354,
    "paso_puerta":"llego"
  },
  {
    "codigo_collar":100049,
    "fecha_hora":1454931000000,
    "ritmo_Cardiaco":53,
    "ubicacion_actual_latitud":4.722652,
    "ubicacion_actual_longitud":-74.046512,
    "paso_puerta":"salio"
  },
  {
    "codigo_collar":100015,
    "fecha_hora":1454931300000,
    "ritmo_Cardiaco":84,
    "ubicacion_actual_latitud":4.723436,
    "ubicacion_actual_longitud":-74.047568,
    "paso_puerta":"llego"
  },
  {
    "codigo_collar":100013,
    "fecha_hora":1454931600000,
    "ritmo_Cardiaco":111,
    "ubicacion_actual_latitud":4.717767,
    "ubicacion_actual_longitud":-74.050427,
    "paso_puerta":"llego"
  },
  {
    "codigo_collar":100020,
    "fecha_hora":1454931900000,
    "ritmo_Cardiaco":67,
    "ubicacion_actual_latitud":4.721373,
    "ubicacion_actual_longitud":-74.050235,
    "paso_puerta":"llego"
  },
  {
    "codigo_collar":100054,
    "fecha_hora":1454932200000,
    "ritmo_Cardiaco":118,
    "ubicacion_actual_latitud":4.720131,
    "ubicacion_actual_longitud":-74.049077,
    "paso_puerta":"llego"
  },
  {
    "codigo_collar":100035,
    "fecha_hora":1454932500000,
    "ritmo_Cardiaco":38,
    "ubicacion_actual_latitud":4.717612,
    "ubicacion_actual_longitud":-74.045816,
    "paso_puerta":"llego"
  },
  {
    "codigo_collar":100058,
    "fecha_hora":1454932800000,
    "ritmo_Cardiaco":92,
    "ubicacion_actual_latitud":4.718035,
    "ubicacion_actual_longitud":-74.047221,
    "paso_puerta":""
  },
  {
    "codigo_collar":100053,
    "fecha_hora":1454933100000,
    "ritmo_Cardiaco":100,
    "ubicacion_actual_latitud":4.72,
    "ubicacion_actual_longitud":-74.049585,
    "paso_puerta":""
  },
  {
    "codigo_collar":100024,
    "fecha_hora":1454933400000,
    "ritmo_Cardiaco":38,
    "ubicacion_actual_latitud":4.717687,
    "ubicacion_actual_longitud":-74.048846,
    "paso_puerta":"salio"
  },
  {
    "codigo_collar":100012,
    "fecha_hora":1454933700000,
    "ritmo_Cardiaco":45,
    "ubicacion_actual_latitud":4.720784,
    "ubicacion_actual_longitud":-74.043781,
    "paso_puerta":""
  },
  {
    "codigo_collar":100003,
    "fecha_hora":1454934000000,
    "ritmo_Cardiaco":111,
    "ubicacion_actual_latitud":4.720062,
    "ubicacion_actual_longitud":-74.046713,
    "paso_puerta":""
  },
  {
    "codigo_collar":100025,
    "fecha_hora":1454934300000,
    "ritmo_Cardiaco":95,
    "ubicacion_actual_latitud":4.723084,
    "ubicacion_actual_longitud":-74.049648,
    "paso_puerta":""
  },
  {
    "codigo_collar":100018,
    "fecha_hora":1454934600000,
    "ritmo_Cardiaco":58,
    "ubicacion_actual_latitud":4.719356,
    "ubicacion_actual_longitud":-74.048565,
    "paso_puerta":""
  },
  {
    "codigo_collar":100030,
    "fecha_hora":1454934900000,
    "ritmo_Cardiaco":93,
    "ubicacion_actual_latitud":4.7248,
    "ubicacion_actual_longitud":-74.049224,
    "paso_puerta":"salio"
  },
  {
    "codigo_collar":100032,
    "fecha_hora":1454935200000,
    "ritmo_Cardiaco":90,
    "ubicacion_actual_latitud":4.723266,
    "ubicacion_actual_longitud":-74.047315,
    "paso_puerta":"salio"
  },
  {
    "codigo_collar":100049,
    "fecha_hora":1454935500000,
    "ritmo_Cardiaco":86,
    "ubicacion_actual_latitud":4.717644,
    "ubicacion_actual_longitud":-74.045471,
    "paso_puerta":"salio"
  },
  {
    "codigo_collar":100044,
    "fecha_hora":1454935800000,
    "ritmo_Cardiaco":60,
    "ubicacion_actual_latitud":4.724754,
    "ubicacion_actual_longitud":-74.047094,
    "paso_puerta":""
  },
  {
    "codigo_collar":100058,
    "fecha_hora":1454936100000,
    "ritmo_Cardiaco":77,
    "ubicacion_actual_latitud":4.720171,
    "ubicacion_actual_longitud":-74.044717,
    "paso_puerta":"salio"
  },
  {
    "codigo_collar":100031,
    "fecha_hora":1454936400000,
    "ritmo_Cardiaco":45,
    "ubicacion_actual_latitud":4.722097,
    "ubicacion_actual_longitud":-74.048682,
    "paso_puerta":"llego"
  },
  {
    "codigo_collar":100055,
    "fecha_hora":1454936700000,
    "ritmo_Cardiaco":73,
    "ubicacion_actual_latitud":4.723484,
    "ubicacion_actual_longitud":-74.044405,
    "paso_puerta":"llego"
  },
  {
    "codigo_collar":100054,
    "fecha_hora":1454937000000,
    "ritmo_Cardiaco":40,
    "ubicacion_actual_latitud":4.720957,
    "ubicacion_actual_longitud":-74.050138,
    "paso_puerta":""
  },
  {
    "codigo_collar":100037,
    "fecha_hora":1454937300000,
    "ritmo_Cardiaco":112,
    "ubicacion_actual_latitud":4.722096,
    "ubicacion_actual_longitud":-74.044969,
    "paso_puerta":"salio"
  },
  {
    "codigo_collar":100001,
    "fecha_hora":1454937600000,
    "ritmo_Cardiaco":67,
    "ubicacion_actual_latitud":4.722586,
    "ubicacion_actual_longitud":-74.044546,
    "paso_puerta":""
  },
  {
    "codigo_collar":100028,
    "fecha_hora":1454937900000,
    "ritmo_Cardiaco":96,
    "ubicacion_actual_latitud":4.718535,
    "ubicacion_actual_longitud":-74.046118,
    "paso_puerta":""
  },
  {
    "codigo_collar":100020,
    "fecha_hora":1454938200000,
    "ritmo_Cardiaco":116,
    "ubicacion_actual_latitud":4.724573,
    "ubicacion_actual_longitud":-74.043998,
    "paso_puerta":""
  },
  {
    "codigo_collar":100021,
    "fecha_hora":1454938500000,
    "ritmo_Cardiaco":75,
    "ubicacion_actual_latitud":4.722069,
    "ubicacion_actual_longitud":-74.046693,
    "paso_puerta":"salio"
  },
  {
    "codigo_collar":100056,
    "fecha_hora":1454938800000,
    "ritmo_Cardiaco":54,
    "ubicacion_actual_latitud":4.719032,
    "ubicacion_actual_longitud":-74.045138,
    "paso_puerta":""
  },
  {
    "codigo_collar":100034,
    "fecha_hora":1454939100000,
    "ritmo_Cardiaco":115,
    "ubicacion_actual_latitud":4.720046,
    "ubicacion_actual_longitud":-74.044892,
    "paso_puerta":""
  },
  {
    "codigo_collar":100017,
    "fecha_hora":1454939400000,
    "ritmo_Cardiaco":110,
    "ubicacion_actual_latitud":4.718901,
    "ubicacion_actual_longitud":-74.043618,
    "paso_puerta":""
  },
  {
    "codigo_collar":100042,
    "fecha_hora":1454939700000,
    "ritmo_Cardiaco":72,
    "ubicacion_actual_latitud":4.720516,
    "ubicacion_actual_longitud":-74.046513,
    "paso_puerta":"salio"
  },
  {
    "codigo_collar":100017,
    "fecha_hora":1454940000000,
    "ritmo_Cardiaco":111,
    "ubicacion_actual_latitud":4.723223,
    "ubicacion_actual_longitud":-74.049822,
    "paso_puerta":"salio"
  },
  {
    "codigo_collar":100036,
    "fecha_hora":1454940300000,
    "ritmo_Cardiaco":118,
    "ubicacion_actual_latitud":4.717834,
    "ubicacion_actual_longitud":-74.04699,
    "paso_puerta":"salio"
  },
  {
    "codigo_collar":100012,
    "fecha_hora":1454940600000,
    "ritmo_Cardiaco":82,
    "ubicacion_actual_latitud":4.723298,
    "ubicacion_actual_longitud":-74.047566,
    "paso_puerta":"llego"
  },
  {
    "codigo_collar":100054,
    "fecha_hora":1454940900000,
    "ritmo_Cardiaco":43,
    "ubicacion_actual_latitud":4.723573,
    "ubicacion_actual_longitud":-74.049742,
    "paso_puerta":"salio"
  },
  {
    "codigo_collar":100016,
    "fecha_hora":1454941200000,
    "ritmo_Cardiaco":104,
    "ubicacion_actual_latitud":4.718628,
    "ubicacion_actual_longitud":-74.045536,
    "paso_puerta":""
  },
  {
    "codigo_collar":100034,
    "fecha_hora":1454941500000,
    "ritmo_Cardiaco":53,
    "ubicacion_actual_latitud":4.723503,
    "ubicacion_actual_longitud":-74.047438,
    "paso_puerta":"llego"
  },
  {
    "codigo_collar":100042,
    "fecha_hora":1454941800000,
    "ritmo_Cardiaco":75,
    "ubicacion_actual_latitud":4.723283,
    "ubicacion_actual_longitud":-74.047505,
    "paso_puerta":"llego"
  },
  {
    "codigo_collar":100024,
    "fecha_hora":1454942100000,
    "ritmo_Cardiaco":112,
    "ubicacion_actual_latitud":4.723413,
    "ubicacion_actual_longitud":-74.05012,
    "paso_puerta":""
  },
  {
    "codigo_collar":100057,
    "fecha_hora":1454942400000,
    "ritmo_Cardiaco":59,
    "ubicacion_actual_latitud":4.724331,
    "ubicacion_actual_longitud":-74.046555,
    "paso_puerta":"llego"
  },
  {
    "codigo_collar":100020,
    "fecha_hora":1454942700000,
    "ritmo_Cardiaco":92,
    "ubicacion_actual_latitud":4.719702,
    "ubicacion_actual_longitud":-74.049524,
    "paso_puerta":"salio"
  },
  {
    "codigo_collar":100009,
    "fecha_hora":1454943000000,
    "ritmo_Cardiaco":106,
    "ubicacion_actual_latitud":4.719478,
    "ubicacion_actual_longitud":-74.045395,
    "paso_puerta":"salio"
  },
  {
    "codigo_collar":100028,
    "fecha_hora":1454943300000,
    "ritmo_Cardiaco":85,
    "ubicacion_actual_latitud":4.724659,
    "ubicacion_actual_longitud":-74.043735,
    "paso_puerta":"llego"
  },
  {
    "codigo_collar":100009,
    "fecha_hora":1454943600000,
    "ritmo_Cardiaco":90,
    "ubicacion_actual_latitud":4.717834,
    "ubicacion_actual_longitud":-74.048103,
    "paso_puerta":"salio"
  },
  {
    "codigo_collar":100007,
    "fecha_hora":1454943900000,
    "ritmo_Cardiaco":68,
    "ubicacion_actual_latitud":4.718122,
    "ubicacion_actual_longitud":-74.045483,
    "paso_puerta":""
  },
  {
    "codigo_collar":100058,
    "fecha_hora":1454944200000,
    "ritmo_Cardiaco":64,
    "ubicacion_actual_latitud":4.719219,
    "ubicacion_actual_longitud":-74.044146,
    "paso_puerta":"llego"
  },
  {
    "codigo_collar":100026,
    "fecha_hora":1454944500000,
    "ritmo_Cardiaco":91,
    "ubicacion_actual_latitud":4.720725,
    "ubicacion_actual_longitud":-74.045166,
    "paso_puerta":"salio"
  },
  {
    "codigo_collar":100031,
    "fecha_hora":1454944800000,
    "ritmo_Cardiaco":96,
    "ubicacion_actual_latitud":4.721494,
    "ubicacion_actual_longitud":-74.050477,
    "paso_puerta":"salio"
  },
  {
    "codigo_collar":100056,
    "fecha_hora":1454945100000,
    "ritmo_Cardiaco":81,
    "ubicacion_actual_latitud":4.71896,
    "ubicacion_actual_longitud":-74.045143,
    "paso_puerta":"salio"
  },
  {
    "codigo_collar":100003,
    "fecha_hora":1454945400000,
    "ritmo_Cardiaco":120,
    "ubicacion_actual_latitud":4.72287,
    "ubicacion_actual_longitud":-74.045872,
    "paso_puerta":"llego"
  },
  {
    "codigo_collar":100006,
    "fecha_hora":1454945700000,
    "ritmo_Cardiaco":107,
    "ubicacion_actual_latitud":4.72456,
    "ubicacion_actual_longitud":-74.045515,
    "paso_puerta":""
  },
  {
    "codigo_collar":100014,
    "fecha_hora":1454946000000,
    "ritmo_Cardiaco":86,
    "ubicacion_actual_latitud":4.719226,
    "ubicacion_actual_longitud":-74.048029,
    "paso_puerta":""
  },
  {
    "codigo_collar":100036,
    "fecha_hora":1454946300000,
    "ritmo_Cardiaco":59,
    "ubicacion_actual_latitud":4.717671,
    "ubicacion_actual_longitud":-74.045726,
    "paso_puerta":"llego"
  },
  {
    "codigo_collar":100006,
    "fecha_hora":1454946600000,
    "ritmo_Cardiaco":82,
    "ubicacion_actual_latitud":4.724664,
    "ubicacion_actual_longitud":-74.04642,
    "paso_puerta":"llego"
  },
  {
    "codigo_collar":100008,
    "fecha_hora":1454946900000,
    "ritmo_Cardiaco":44,
    "ubicacion_actual_latitud":4.718936,
    "ubicacion_actual_longitud":-74.048712,
    "paso_puerta":""
  },
  {
    "codigo_collar":100037,
    "fecha_hora":1454947200000,
    "ritmo_Cardiaco":84,
    "ubicacion_actual_latitud":4.7192,
    "ubicacion_actual_longitud":-74.048803,
    "paso_puerta":"salio"
  },
  {
    "codigo_collar":100051,
    "fecha_hora":1454947500000,
    "ritmo_Cardiaco":42,
    "ubicacion_actual_latitud":4.717675,
    "ubicacion_actual_longitud":-74.046785,
    "paso_puerta":"salio"
  },
  {
    "codigo_collar":100042,
    "fecha_hora":1454947800000,
    "ritmo_Cardiaco":64,
    "ubicacion_actual_latitud":4.723765,
    "ubicacion_actual_longitud":-74.044888,
    "paso_puerta":"salio"
  },
  {
    "codigo_collar":100050,
    "fecha_hora":1454948100000,
    "ritmo_Cardiaco":47,
    "ubicacion_actual_latitud":4.724027,
    "ubicacion_actual_longitud":-74.050043,
    "paso_puerta":"salio"
  },
  {
    "codigo_collar":100047,
    "fecha_hora":1454948400000,
    "ritmo_Cardiaco":106,
    "ubicacion_actual_latitud":4.719509,
    "ubicacion_actual_longitud":-74.049461,
    "paso_puerta":""
  },
  {
    "codigo_collar":100043,
    "fecha_hora":1454948700000,
    "ritmo_Cardiaco":96,
    "ubicacion_actual_latitud":4.71968,
    "ubicacion_actual_longitud":-74.044818,
    "paso_puerta":"salio"
  },
  {
    "codigo_collar":100042,
    "fecha_hora":1454949000000,
    "ritmo_Cardiaco":95,
    "ubicacion_actual_latitud":4.723398,
    "ubicacion_actual_longitud":-74.045295,
    "paso_puerta":"llego"
  },
  {
    "codigo_collar":100029,
    "fecha_hora":1454949300000,
    "ritmo_Cardiaco":88,
    "ubicacion_actual_latitud":4.721873,
    "ubicacion_actual_longitud":-74.04508,
    "paso_puerta":""
  },
  {
    "codigo_collar":100056,
    "fecha_hora":1454949600000,
    "ritmo_Cardiaco":111,
    "ubicacion_actual_latitud":4.717643,
    "ubicacion_actual_longitud":-74.045094,
    "paso_puerta":""
  },
  {
    "codigo_collar":100008,
    "fecha_hora":1454949900000,
    "ritmo_Cardiaco":88,
    "ubicacion_actual_latitud":4.721299,
    "ubicacion_actual_longitud":-74.04576,
    "paso_puerta":"llego"
  }
]
