[
  {
    "apellidos":"Humphrey",
    "nombre":"Claudette",
    "cedula":55270134,
    "direccion_latitud":4.721217,
    "direccion_longitud":-74.046937,
    "codigo_collar":[100001],
    "email":"Claudette.Humphrey@estructurasdedatos.edu.co",
    "celular":3170537859,
    "prioridad":3
  },
  {
    "apellidos":"Petersen",
    "nombre":"Sherri",
    "cedula":68059295,
    "direccion_latitud":4.722489,
    "direccion_longitud":-74.045739,
    "codigo_collar":[100002],
    "email":"Sherri.Petersen@estructurasdedatos.edu.co",
    "celular":3214598613,
    "prioridad":10
  },
  {
    "apellidos":"Richard",
    "nombre":"Reilly",
    "cedula":71829256,
    "direccion_latitud":4.721386,
    "direccion_longitud":-74.047335,
    "codigo_collar":[100003],
    "email":"Reilly.Richard@estructurasdedatos.edu.co",
    "celular":3185902656,
    "prioridad":6
  },
  {
    "apellidos":"Callahan",
    "nombre":"Livingston",
    "cedula":73788553,
    "direccion_latitud":4.719747,
    "direccion_longitud":-74.044285,
    "codigo_collar":[100004],
    "email":"Livingston.Callahan@estructurasdedatos.edu.co",
    "celular":3206722926,
    "prioridad":3
  },
  {
    "apellidos":"Conley",
    "nombre":"Aguirre",
    "cedula":62953968,
    "direccion_latitud":4.723721,
    "direccion_longitud":-74.04416,
    "codigo_collar":[100005],
    "email":"Aguirre.Conley@estructurasdedatos.edu.co",
    "celular":3113237885,
    "prioridad":5
  },
  {
    "apellidos":"Watson",
    "nombre":"Billie",
    "cedula":76170283,
    "direccion_latitud":4.719139,
    "direccion_longitud":-74.044697,
    "codigo_collar":[100006],
    "email":"Billie.Watson@estructurasdedatos.edu.co",
    "celular":3173690632,
    "prioridad":9
  },
  {
    "apellidos":"Mooney",
    "nombre":"Ida",
    "cedula":74544114,
    "direccion_latitud":4.724435,
    "direccion_longitud":-74.049333,
    "codigo_collar":[100007],
    "email":"Ida.Mooney@estructurasdedatos.edu.co",
    "celular":3124770606,
    "prioridad":2
  },
  {
    "apellidos":"Garcia",
    "nombre":"Dina",
    "cedula":56616657,
    "direccion_latitud":4.72264,
    "direccion_longitud":-74.046304,
    "codigo_collar":[100008],
    "email":"Dina.Garcia@estructurasdedatos.edu.co",
    "celular":3170512382,
    "prioridad":4
  },
  {
    "apellidos":"Mccarty",
    "nombre":"Bishop",
    "cedula":76076381,
    "direccion_latitud":4.723013,
    "direccion_longitud":-74.045248,
    "codigo_collar":[100009],
    "email":"Bishop.Mccarty@estructurasdedatos.edu.co",
    "celular":3173854943,
    "prioridad":1
  },
  {
    "apellidos":"Booker",
    "nombre":"Slater",
    "cedula":54008340,
    "direccion_latitud":4.723978,
    "direccion_longitud":-74.046667,
    "codigo_collar":[100010],
    "email":"Slater.Booker@estructurasdedatos.edu.co",
    "celular":3166505716,
    "prioridad":9
  },
  {
    "apellidos":"Bond",
    "nombre":"Walls",
    "cedula":55732706,
    "direccion_latitud":4.72024,
    "direccion_longitud":-74.04556,
    "codigo_collar":[100011],
    "email":"Walls.Bond@estructurasdedatos.edu.co",
    "celular":3182267738,
    "prioridad":1
  },
  {
    "apellidos":"Ayers",
    "nombre":"Mavis",
    "cedula":64053408,
    "direccion_latitud":4.724358,
    "direccion_longitud":-74.049479,
    "codigo_collar":[100012],
    "email":"Mavis.Ayers@estructurasdedatos.edu.co",
    "celular":3168199740,
    "prioridad":2
  },
  {
    "apellidos":"Duran",
    "nombre":"Ware",
    "cedula":78348286,
    "direccion_latitud":4.72351,
    "direccion_longitud":-74.047599,
    "codigo_collar":[100013],
    "email":"Ware.Duran@estructurasdedatos.edu.co",
    "celular":3127542692,
    "prioridad":6
  },
  {
    "apellidos":"Noble",
    "nombre":"Holman",
    "cedula":65969661,
    "direccion_latitud":4.724678,
    "direccion_longitud":-74.049397,
    "codigo_collar":[100014],
    "email":"Holman.Noble@estructurasdedatos.edu.co",
    "celular":3174691254,
    "prioridad":1
  },
  {
    "apellidos":"Fitzgerald",
    "nombre":"Ball",
    "cedula":71191451,
    "direccion_latitud":4.723588,
    "direccion_longitud":-74.04381,
    "codigo_collar":[100015],
    "email":"Ball.Fitzgerald@estructurasdedatos.edu.co",
    "celular":3117597381,
    "prioridad":10
  },
  {
    "apellidos":"Sparks",
    "nombre":"Hoffman",
    "cedula":75325272,
    "direccion_latitud":4.72451,
    "direccion_longitud":-74.046857,
    "codigo_collar":[100016],
    "email":"Hoffman.Sparks@estructurasdedatos.edu.co",
    "celular":3212845789,
    "prioridad":7
  },
  {
    "apellidos":"Kline",
    "nombre":"Brandy",
    "cedula":71964183,
    "direccion_latitud":4.720551,
    "direccion_longitud":-74.046974,
    "codigo_collar":[100017],
    "email":"Brandy.Kline@estructurasdedatos.edu.co",
    "celular":3210282428,
    "prioridad":2
  },
  {
    "apellidos":"Davenport",
    "nombre":"Virginia",
    "cedula":53687323,
    "direccion_latitud":4.718762,
    "direccion_longitud":-74.046382,
    "codigo_collar":[100018],
    "email":"Virginia.Davenport@estructurasdedatos.edu.co",
    "celular":3169499008,
    "prioridad":2
  },
  {
    "apellidos":"Davis",
    "nombre":"Shelton",
    "cedula":55436408,
    "direccion_latitud":4.721778,
    "direccion_longitud":-74.044239,
    "codigo_collar":[100019],
    "email":"Shelton.Davis@estructurasdedatos.edu.co",
    "celular":3206278837,
    "prioridad":3
  },
  {
    "apellidos":"David",
    "nombre":"Esmeralda",
    "cedula":68469495,
    "direccion_latitud":4.723604,
    "direccion_longitud":-74.049326,
    "codigo_collar":[100020],
    "email":"Esmeralda.David@estructurasdedatos.edu.co",
    "celular":3147714346,
    "prioridad":10
  },
  {
    "apellidos":"Barton",
    "nombre":"Cora",
    "cedula":77130849,
    "direccion_latitud":4.723038,
    "direccion_longitud":-74.047661,
    "codigo_collar":[100021],
    "email":"Cora.Barton@estructurasdedatos.edu.co",
    "celular":3115636396,
    "prioridad":7
  },
  {
    "apellidos":"Flores",
    "nombre":"Ortiz",
    "cedula":65924606,
    "direccion_latitud":4.724643,
    "direccion_longitud":-74.044859,
    "codigo_collar":[100022],
    "email":"Ortiz.Flores@estructurasdedatos.edu.co",
    "celular":3166419332,
    "prioridad":7
  },
  {
    "apellidos":"Smith",
    "nombre":"Melton",
    "cedula":79030590,
    "direccion_latitud":4.718871,
    "direccion_longitud":-74.044984,
    "codigo_collar":[100023],
    "email":"Melton.Smith@estructurasdedatos.edu.co",
    "celular":3172632659,
    "prioridad":10
  },
  {
    "apellidos":"Blanchard",
    "nombre":"Kerri",
    "cedula":69011972,
    "direccion_latitud":4.719562,
    "direccion_longitud":-74.046719,
    "codigo_collar":[100024],
    "email":"Kerri.Blanchard@estructurasdedatos.edu.co",
    "celular":3173501996,
    "prioridad":10
  },
  {
    "apellidos":"Gould",
    "nombre":"Dale",
    "cedula":72537971,
    "direccion_latitud":4.717649,
    "direccion_longitud":-74.046441,
    "codigo_collar":[100025],
    "email":"Dale.Gould@estructurasdedatos.edu.co",
    "celular":3111664135,
    "prioridad":6
  },
  {
    "apellidos":"Rice",
    "nombre":"Bradford",
    "cedula":72263064,
    "direccion_latitud":4.724741,
    "direccion_longitud":-74.047836,
    "codigo_collar":[100026],
    "email":"Bradford.Rice@estructurasdedatos.edu.co",
    "celular":3163221421,
    "prioridad":1
  },
  {
    "apellidos":"Saunders",
    "nombre":"Corina",
    "cedula":53267688,
    "direccion_latitud":4.72441,
    "direccion_longitud":-74.044363,
    "codigo_collar":[100027],
    "email":"Corina.Saunders@estructurasdedatos.edu.co",
    "celular":3195096057,
    "prioridad":1
  },
  {
    "apellidos":"Hardin",
    "nombre":"Golden",
    "cedula":79431882,
    "direccion_latitud":4.722664,
    "direccion_longitud":-74.04876,
    "codigo_collar":[100028],
    "email":"Golden.Hardin@estructurasdedatos.edu.co",
    "celular":3179207708,
    "prioridad":6
  },
  {
    "apellidos":"Holden",
    "nombre":"Dodson",
    "cedula":79964556,
    "direccion_latitud":4.722685,
    "direccion_longitud":-74.048487,
    "codigo_collar":[100029],
    "email":"Dodson.Holden@estructurasdedatos.edu.co",
    "celular":3131984144,
    "prioridad":7
  },
  {
    "apellidos":"Grimes",
    "nombre":"Murphy",
    "cedula":74918488,
    "direccion_latitud":4.717786,
    "direccion_longitud":-74.047449,
    "codigo_collar":[100030],
    "email":"Murphy.Grimes@estructurasdedatos.edu.co",
    "celular":3113864085,
    "prioridad":4
  },
  {
    "apellidos":"Ryan",
    "nombre":"Lavonne",
    "cedula":65090864,
    "direccion_latitud":4.724704,
    "direccion_longitud":-74.045402,
    "codigo_collar":[100031],
    "email":"Lavonne.Ryan@estructurasdedatos.edu.co",
    "celular":3111872597,
    "prioridad":5
  },
  {
    "apellidos":"Morales",
    "nombre":"Blackburn",
    "cedula":78487669,
    "direccion_latitud":4.7217,
    "direccion_longitud":-74.047879,
    "codigo_collar":[100032],
    "email":"Blackburn.Morales@estructurasdedatos.edu.co",
    "celular":3156908940,
    "prioridad":6
  },
  {
    "apellidos":"Patel",
    "nombre":"Tran",
    "cedula":53585474,
    "direccion_latitud":4.721799,
    "direccion_longitud":-74.048468,
    "codigo_collar":[100033],
    "email":"Tran.Patel@estructurasdedatos.edu.co",
    "celular":3180939299,
    "prioridad":7
  },
  {
    "apellidos":"Hess",
    "nombre":"Tanisha",
    "cedula":71708876,
    "direccion_latitud":4.717657,
    "direccion_longitud":-74.045679,
    "codigo_collar":[100034],
    "email":"Tanisha.Hess@estructurasdedatos.edu.co",
    "celular":3146964358,
    "prioridad":1
  },
  {
    "apellidos":"Bartlett",
    "nombre":"Guadalupe",
    "cedula":62523945,
    "direccion_latitud":4.724348,
    "direccion_longitud":-74.049849,
    "codigo_collar":[100035],
    "email":"Guadalupe.Bartlett@estructurasdedatos.edu.co",
    "celular":3184133605,
    "prioridad":8
  },
  {
    "apellidos":"Sims",
    "nombre":"Milagros",
    "cedula":58907122,
    "direccion_latitud":4.722733,
    "direccion_longitud":-74.04547,
    "codigo_collar":[100036],
    "email":"Milagros.Sims@estructurasdedatos.edu.co",
    "celular":3212384725,
    "prioridad":10
  },
  {
    "apellidos":"Rogers",
    "nombre":"Knight",
    "cedula":57946664,
    "direccion_latitud":4.718564,
    "direccion_longitud":-74.046825,
    "codigo_collar":[100037],
    "email":"Knight.Rogers@estructurasdedatos.edu.co",
    "celular":3167516636,
    "prioridad":6
  },
  {
    "apellidos":"Wilcox",
    "nombre":"Summers",
    "cedula":75462474,
    "direccion_latitud":4.719818,
    "direccion_longitud":-74.048968,
    "codigo_collar":[100038],
    "email":"Summers.Wilcox@estructurasdedatos.edu.co",
    "celular":3218744164,
    "prioridad":7
  },
  {
    "apellidos":"Luna",
    "nombre":"Angela",
    "cedula":64591418,
    "direccion_latitud":4.720274,
    "direccion_longitud":-74.048465,
    "codigo_collar":[100039],
    "email":"Angela.Luna@estructurasdedatos.edu.co",
    "celular":3203952630,
    "prioridad":1
  },
  {
    "apellidos":"Kelly",
    "nombre":"Genevieve",
    "cedula":75805048,
    "direccion_latitud":4.717836,
    "direccion_longitud":-74.046392,
    "codigo_collar":[100040],
    "email":"Genevieve.Kelly@estructurasdedatos.edu.co",
    "celular":3157104967,
    "prioridad":6
  },
  {
    "apellidos":"Maxwell",
    "nombre":"Kelly",
    "cedula":65646810,
    "direccion_latitud":4.718366,
    "direccion_longitud":-74.048178,
    "codigo_collar":[100041],
    "email":"Kelly.Maxwell@estructurasdedatos.edu.co",
    "celular":3163487765,
    "prioridad":9
  },
  {
    "apellidos":"Dean",
    "nombre":"Lacey",
    "cedula":76899951,
    "direccion_latitud":4.718098,
    "direccion_longitud":-74.047722,
    "codigo_collar":[100042],
    "email":"Lacey.Dean@estructurasdedatos.edu.co",
    "celular":3217351043,
    "prioridad":4
  },
  {
    "apellidos":"Everett",
    "nombre":"Roxanne",
    "cedula":69034272,
    "direccion_latitud":4.722102,
    "direccion_longitud":-74.049195,
    "codigo_collar":[100043],
    "email":"Roxanne.Everett@estructurasdedatos.edu.co",
    "celular":3193523263,
    "prioridad":4
  },
  {
    "apellidos":"England",
    "nombre":"Gilmore",
    "cedula":75215016,
    "direccion_latitud":4.724517,
    "direccion_longitud":-74.050052,
    "codigo_collar":[100044],
    "email":"Gilmore.England@estructurasdedatos.edu.co",
    "celular":3105374774,
    "prioridad":7
  },
  {
    "apellidos":"Baxter",
    "nombre":"Best",
    "cedula":73222929,
    "direccion_latitud":4.718137,
    "direccion_longitud":-74.044759,
    "codigo_collar":[100045],
    "email":"Best.Baxter@estructurasdedatos.edu.co",
    "celular":3216428081,
    "prioridad":1
  },
  {
    "apellidos":"Logan",
    "nombre":"Julie",
    "cedula":68971196,
    "direccion_latitud":4.717737,
    "direccion_longitud":-74.049184,
    "codigo_collar":[100046],
    "email":"Julie.Logan@estructurasdedatos.edu.co",
    "celular":3112055233,
    "prioridad":5
  },
  {
    "apellidos":"Burch",
    "nombre":"Short",
    "cedula":61195365,
    "direccion_latitud":4.719778,
    "direccion_longitud":-74.049,
    "codigo_collar":[100047],
    "email":"Short.Burch@estructurasdedatos.edu.co",
    "celular":3163676884,
    "prioridad":8
  },
  {
    "apellidos":"Andrews",
    "nombre":"Rollins",
    "cedula":66662789,
    "direccion_latitud":4.719849,
    "direccion_longitud":-74.04381,
    "codigo_collar":[100048],
    "email":"Rollins.Andrews@estructurasdedatos.edu.co",
    "celular":3165313219,
    "prioridad":3
  },
  {
    "apellidos":"Barker",
    "nombre":"Lara",
    "cedula":73570172,
    "direccion_latitud":4.722501,
    "direccion_longitud":-74.046442,
    "codigo_collar":[100049],
    "email":"Lara.Barker@estructurasdedatos.edu.co",
    "celular":3154637921,
    "prioridad":10
  },
  {
    "apellidos":"Hicks",
    "nombre":"May",
    "cedula":76904882,
    "direccion_latitud":4.719334,
    "direccion_longitud":-74.04709,
    "codigo_collar":[100050],
    "email":"May.Hicks@estructurasdedatos.edu.co",
    "celular":3188773401,
    "prioridad":1
  },
  {
    "apellidos":"Justice",
    "nombre":"Sallie",
    "cedula":55188180,
    "direccion_latitud":4.722909,
    "direccion_longitud":-74.050409,
    "codigo_collar":[100051],
    "email":"Sallie.Justice@estructurasdedatos.edu.co",
    "celular":3111407247,
    "prioridad":3
  },
  {
    "apellidos":"Wallace",
    "nombre":"Simpson",
    "cedula":60942064,
    "direccion_latitud":4.719063,
    "direccion_longitud":-74.044298,
    "codigo_collar":[100052],
    "email":"Simpson.Wallace@estructurasdedatos.edu.co",
    "celular":3169932424,
    "prioridad":6
  },
  {
    "apellidos":"Grant",
    "nombre":"Booker",
    "cedula":71965947,
    "direccion_latitud":4.721492,
    "direccion_longitud":-74.045615,
    "codigo_collar":[100053],
    "email":"Booker.Grant@estructurasdedatos.edu.co",
    "celular":3111288270,
    "prioridad":1
  },
  {
    "apellidos":"Rodriguez",
    "nombre":"Vicki",
    "cedula":53556284,
    "direccion_latitud":4.723268,
    "direccion_longitud":-74.049047,
    "codigo_collar":[100054],
    "email":"Vicki.Rodriguez@estructurasdedatos.edu.co",
    "celular":3149018505,
    "prioridad":6
  },
  {
    "apellidos":"Stephenson",
    "nombre":"Lawson",
    "cedula":73438187,
    "direccion_latitud":4.722489,
    "direccion_longitud":-74.047302,
    "codigo_collar":[100055],
    "email":"Lawson.Stephenson@estructurasdedatos.edu.co",
    "celular":3131372735,
    "prioridad":9
  },
  {
    "apellidos":"Horn",
    "nombre":"Tonya",
    "cedula":59833011,
    "direccion_latitud":4.724298,
    "direccion_longitud":-74.043822,
    "codigo_collar":[100056],
    "email":"Tonya.Horn@estructurasdedatos.edu.co",
    "celular":3159329154,
    "prioridad":1
  },
  {
    "apellidos":"Vincent",
    "nombre":"Lowe",
    "cedula":72829278,
    "direccion_latitud":4.721849,
    "direccion_longitud":-74.045919,
    "codigo_collar":[100057],
    "email":"Lowe.Vincent@estructurasdedatos.edu.co",
    "celular":3179386761,
    "prioridad":10
  },
  {
    "apellidos":"Mitchell",
    "nombre":"Bullock",
    "cedula":58471107,
    "direccion_latitud":4.724539,
    "direccion_longitud":-74.0455,
    "codigo_collar":[100058],
    "email":"Bullock.Mitchell@estructurasdedatos.edu.co",
    "celular":3184258523,
    "prioridad":9
  }
]
