[
  {
    "codigo_collar":100001,
    "nombre":"Frezzio",
    "raza":"Chihuahua",
    "edad_meses":5,
    "pul_max_pormin":310,
    "pul_normal_pormin_inferior":110,
    "pul_normal_pormin_superior":120,
    "pul_min_pormin_inferior":40,
    "pul_min_pormin_superior":60,
    "zona":1
  },
  {
    "codigo_collar":100005,
    "nombre":"Gabone",
    "raza":"Caniche",
    "edad_meses":29,
    "pul_max_pormin":275,
    "pul_normal_pormin_inferior":90,
    "pul_normal_pormin_superior":100,
    "pul_min_pormin_inferior":38,
    "pul_min_pormin_superior":75,
    "zona":1
  },
  {
    "codigo_collar":100002,
    "nombre":"Mai",
    "raza":"Broholmer",
    "edad_meses":58,
    "pul_max_pormin":253,
    "pul_normal_pormin_inferior":91,
    "pul_normal_pormin_superior":100,
    "pul_min_pormin_inferior":45,
    "pul_min_pormin_superior":67,
    "zona":1
  },
  {
    "codigo_collar":100003,
    "nombre":"Iker",
    "raza":"Boston Terrier",
    "edad_meses":12,
    "pul_max_pormin":298,
    "pul_normal_pormin_inferior":110,
    "pul_normal_pormin_superior":120,
    "pul_min_pormin_inferior":39,
    "pul_min_pormin_superior":51,
    "zona":1
  },
  {
    "codigo_collar":100004,
    "nombre":"Zane",
    "raza":"Bulldog",
    "edad_meses":78,
    "pul_max_pormin":240,
    "pul_normal_pormin_inferior":70,
    "pul_normal_pormin_superior":80,
    "pul_min_pormin_inferior":44,
    "pul_min_pormin_superior":63,
    "zona":1
  },
{
"codigo_collar":100006,
"nombre":"AMELIA",
"raza":"SIT",
"edad_meses":19,
"pul_max_pormin":313,
"pul_normal_pormin_inferior":118,
"pul_normal_pormin_superior":134,
"pul_min_pormin_inferior":49,
"pul_min_pormin_superior":77,
"zona":6
},
{
"codigo_collar":100007,
"nombre":"AMPARO",
"raza":"AMET",
"edad_meses":18,
"pul_max_pormin":317,
"pul_normal_pormin_inferior":122,
"pul_normal_pormin_superior":130,
"pul_min_pormin_inferior":42,
"pul_min_pormin_superior":88,
"zona":7
},
{
"codigo_collar":100008,
"nombre":"ANA",
"raza":"CONSECTETUER",
"edad_meses":18,
"pul_max_pormin":319,
"pul_normal_pormin_inferior":126,
"pul_normal_pormin_superior":138,
"pul_min_pormin_inferior":43,
"pul_min_pormin_superior":87,
"zona":8
},
{
"codigo_collar":100009,
"nombre":"ANANÍAS",
"raza":"ADIPISCING",
"edad_meses":18,
"pul_max_pormin":319,
"pul_normal_pormin_inferior":129,
"pul_normal_pormin_superior":146,
"pul_min_pormin_inferior":50,
"pul_min_pormin_superior":74,
"zona":9
},
{
"codigo_collar":100010,
"nombre":"ANASTASIA",
"raza":"ELIT",
"edad_meses":17,
"pul_max_pormin":312,
"pul_normal_pormin_inferior":114,
"pul_normal_pormin_superior":132,
"pul_min_pormin_inferior":40,
"pul_min_pormin_superior":87,
"zona":10
},
{
"codigo_collar":100011,
"nombre":"ANATOLIO",
"raza":"AENEAN",
"edad_meses":13,
"pul_max_pormin":314,
"pul_normal_pormin_inferior":116,
"pul_normal_pormin_superior":137,
"pul_min_pormin_inferior":58,
"pul_min_pormin_superior":96,
"zona":11
},
{
"codigo_collar":100012,
"nombre":"ANDREA",
"raza":"COMMODO",
"edad_meses":15,
"pul_max_pormin":316,
"pul_normal_pormin_inferior":125,
"pul_normal_pormin_superior":136,
"pul_min_pormin_inferior":55,
"pul_min_pormin_superior":75,
"zona":12
},
{
"codigo_collar":100013,
"nombre":"ANDRÉS",
"raza":"LIGULA",
"edad_meses":13,
"pul_max_pormin":315,
"pul_normal_pormin_inferior":120,
"pul_normal_pormin_superior":132,
"pul_min_pormin_inferior":56,
"pul_min_pormin_superior":91,
"zona":13
},
{
"codigo_collar":100014,
"nombre":"ÁNGEL",
"raza":"EGET",
"edad_meses":12,
"pul_max_pormin":310,
"pul_normal_pormin_inferior":117,
"pul_normal_pormin_superior":138,
"pul_min_pormin_inferior":57,
"pul_min_pormin_superior":81,
"zona":14
},
{
"codigo_collar":100015,
"nombre":"ÁNGELA",
"raza":"DOLOR",
"edad_meses":19,
"pul_max_pormin":319,
"pul_normal_pormin_inferior":122,
"pul_normal_pormin_superior":136,
"pul_min_pormin_inferior":51,
"pul_min_pormin_superior":89,
"zona":15
},
{
"codigo_collar":100016,
"nombre":"ÁNGELES",
"raza":"AENEAN",
"edad_meses":11,
"pul_max_pormin":311,
"pul_normal_pormin_inferior":122,
"pul_normal_pormin_superior":144,
"pul_min_pormin_inferior":55,
"pul_min_pormin_superior":86,
"zona":16
},
{
"codigo_collar":100017,
"nombre":"ANIANO",
"raza":"MASSA",
"edad_meses":19,
"pul_max_pormin":317,
"pul_normal_pormin_inferior":127,
"pul_normal_pormin_superior":142,
"pul_min_pormin_inferior":40,
"pul_min_pormin_superior":96,
"zona":17
},
{
"codigo_collar":100018,
"nombre":"ANNA",
"raza":"CUM",
"edad_meses":19,
"pul_max_pormin":317,
"pul_normal_pormin_inferior":121,
"pul_normal_pormin_superior":134,
"pul_min_pormin_inferior":55,
"pul_min_pormin_superior":70,
"zona":18
},
{
"codigo_collar":100019,
"nombre":"ANSELMO",
"raza":"SOCIIS",
"edad_meses":10,
"pul_max_pormin":313,
"pul_normal_pormin_inferior":125,
"pul_normal_pormin_superior":136,
"pul_min_pormin_inferior":41,
"pul_min_pormin_superior":86,
"zona":19
},
{
"codigo_collar":100020,
"nombre":"ANTERO",
"raza":"NATOQUE",
"edad_meses":16,
"pul_max_pormin":312,
"pul_normal_pormin_inferior":110,
"pul_normal_pormin_superior":144,
"pul_min_pormin_inferior":46,
"pul_min_pormin_superior":92,
"zona":20
},
{
"codigo_collar":100021,
"nombre":"ANTONIA",
"raza":"PENATIBUS",
"edad_meses":19,
"pul_max_pormin":314,
"pul_normal_pormin_inferior":113,
"pul_normal_pormin_superior":131,
"pul_min_pormin_inferior":41,
"pul_min_pormin_superior":81,
"zona":21
},
{
"codigo_collar":100022,
"nombre":"ANTONIO",
"raza":"MAGNIS",
"edad_meses":19,
"pul_max_pormin":317,
"pul_normal_pormin_inferior":126,
"pul_normal_pormin_superior":142,
"pul_min_pormin_inferior":58,
"pul_min_pormin_superior":98,
"zona":22
},
{
"codigo_collar":100023,
"nombre":"AQUILES",
"raza":"PARTURIENT",
"edad_meses":11,
"pul_max_pormin":313,
"pul_normal_pormin_inferior":126,
"pul_normal_pormin_superior":138,
"pul_min_pormin_inferior":40,
"pul_min_pormin_superior":78,
"zona":23
},
{
"codigo_collar":100024,
"nombre":"ARACELI",
"raza":"MONTES",
"edad_meses":11,
"pul_max_pormin":314,
"pul_normal_pormin_inferior":110,
"pul_normal_pormin_superior":139,
"pul_min_pormin_inferior":56,
"pul_min_pormin_superior":72,
"zona":24
},
{
"codigo_collar":100025,
"nombre":"ARÁNZAZU",
"raza":"NASCETUR",
"edad_meses":18,
"pul_max_pormin":317,
"pul_normal_pormin_inferior":121,
"pul_normal_pormin_superior":137,
"pul_min_pormin_inferior":51,
"pul_min_pormin_superior":81,
"zona":25
},
{
"codigo_collar":100026,
"nombre":"ARCADIO",
"raza":"RIDICULUS",
"edad_meses":16,
"pul_max_pormin":318,
"pul_normal_pormin_inferior":120,
"pul_normal_pormin_superior":134,
"pul_min_pormin_inferior":52,
"pul_min_pormin_superior":80,
"zona":26
},
{
"codigo_collar":100027,
"nombre":"ARESIO",
"raza":"MUS",
"edad_meses":15,
"pul_max_pormin":315,
"pul_normal_pormin_inferior":123,
"pul_normal_pormin_superior":140,
"pul_min_pormin_inferior":41,
"pul_min_pormin_superior":70,
"zona":27
},
{
"codigo_collar":100028,
"nombre":"ARIADNA",
"raza":"DONEC",
"edad_meses":16,
"pul_max_pormin":315,
"pul_normal_pormin_inferior":116,
"pul_normal_pormin_superior":142,
"pul_min_pormin_inferior":52,
"pul_min_pormin_superior":80,
"zona":28
},
{
"codigo_collar":100029,
"nombre":"ARISTIDES",
"raza":"QUAM",
"edad_meses":18,
"pul_max_pormin":315,
"pul_normal_pormin_inferior":111,
"pul_normal_pormin_superior":149,
"pul_min_pormin_inferior":50,
"pul_min_pormin_superior":87,
"zona":29
},
{
"codigo_collar":100030,
"nombre":"ARNALDO",
"raza":"FELIS",
"edad_meses":19,
"pul_max_pormin":310,
"pul_normal_pormin_inferior":115,
"pul_normal_pormin_superior":134,
"pul_min_pormin_inferior":56,
"pul_min_pormin_superior":91,
"zona":30
},
{
"codigo_collar":100031,
"nombre":"ARTEMIO",
"raza":"ULTRICIES",
"edad_meses":13,
"pul_max_pormin":315,
"pul_normal_pormin_inferior":116,
"pul_normal_pormin_superior":131,
"pul_min_pormin_inferior":48,
"pul_min_pormin_superior":85,
"zona":31
},
{
"codigo_collar":100032,
"nombre":"ARTURO",
"raza":"PELLENTESQUE",
"edad_meses":17,
"pul_max_pormin":318,
"pul_normal_pormin_inferior":121,
"pul_normal_pormin_superior":146,
"pul_min_pormin_inferior":40,
"pul_min_pormin_superior":97,
"zona":32
},
{
"codigo_collar":100033,
"nombre":"ASCENSIÓN",
"raza":"PRETIUM",
"edad_meses":14,
"pul_max_pormin":311,
"pul_normal_pormin_inferior":117,
"pul_normal_pormin_superior":145,
"pul_min_pormin_inferior":40,
"pul_min_pormin_superior":92,
"zona":33
},
{
"codigo_collar":100034,
"nombre":"ASUNCIÓN",
"raza":"QUIS",
"edad_meses":10,
"pul_max_pormin":313,
"pul_normal_pormin_inferior":126,
"pul_normal_pormin_superior":149,
"pul_min_pormin_inferior":43,
"pul_min_pormin_superior":90,
"zona":34
},
{
"codigo_collar":100035,
"nombre":"ATANASIO",
"raza":"SEM",
"edad_meses":11,
"pul_max_pormin":313,
"pul_normal_pormin_inferior":129,
"pul_normal_pormin_superior":149,
"pul_min_pormin_inferior":49,
"pul_min_pormin_superior":90,
"zona":35
},
{
"codigo_collar":100036,
"nombre":"AUGUSTO",
"raza":"NULLA",
"edad_meses":18,
"pul_max_pormin":310,
"pul_normal_pormin_inferior":122,
"pul_normal_pormin_superior":137,
"pul_min_pormin_inferior":53,
"pul_min_pormin_superior":75,
"zona":36
},
{
"codigo_collar":100037,
"nombre":"ÁUREA",
"raza":"CONSEQUAT",
"edad_meses":11,
"pul_max_pormin":313,
"pul_normal_pormin_inferior":110,
"pul_normal_pormin_superior":142,
"pul_min_pormin_inferior":49,
"pul_min_pormin_superior":70,
"zona":37
},
{
"codigo_collar":100038,
"nombre":"AURELIA",
"raza":"MASSA",
"edad_meses":13,
"pul_max_pormin":310,
"pul_normal_pormin_inferior":125,
"pul_normal_pormin_superior":139,
"pul_min_pormin_inferior":56,
"pul_min_pormin_superior":84,
"zona":38
},
{
"codigo_collar":100039,
"nombre":"AURELIANO",
"raza":"QUIS",
"edad_meses":13,
"pul_max_pormin":315,
"pul_normal_pormin_inferior":120,
"pul_normal_pormin_superior":148,
"pul_min_pormin_inferior":44,
"pul_min_pormin_superior":70,
"zona":39
},
{
"codigo_collar":100040,
"nombre":"AURELIO",
"raza":"ENIM",
"edad_meses":14,
"pul_max_pormin":314,
"pul_normal_pormin_inferior":110,
"pul_normal_pormin_superior":149,
"pul_min_pormin_inferior":59,
"pul_min_pormin_superior":96,
"zona":40
},
{
"codigo_collar":100041,
"nombre":"AURORA",
"raza":"DONEC",
"edad_meses":14,
"pul_max_pormin":312,
"pul_normal_pormin_inferior":124,
"pul_normal_pormin_superior":131,
"pul_min_pormin_inferior":50,
"pul_min_pormin_superior":72,
"zona":41
},
{
"codigo_collar":100042,
"nombre":"BALDOMERO",
"raza":"PEDE",
"edad_meses":14,
"pul_max_pormin":317,
"pul_normal_pormin_inferior":118,
"pul_normal_pormin_superior":139,
"pul_min_pormin_inferior":40,
"pul_min_pormin_superior":88,
"zona":42
},
{
"codigo_collar":100043,
"nombre":"BALDUINO",
"raza":"JUSTO",
"edad_meses":16,
"pul_max_pormin":315,
"pul_normal_pormin_inferior":129,
"pul_normal_pormin_superior":141,
"pul_min_pormin_inferior":52,
"pul_min_pormin_superior":73,
"zona":43
},
{
"codigo_collar":100044,
"nombre":"BALTASAR",
"raza":"FRINGILLA",
"edad_meses":10,
"pul_max_pormin":312,
"pul_normal_pormin_inferior":128,
"pul_normal_pormin_superior":137,
"pul_min_pormin_inferior":50,
"pul_min_pormin_superior":92,
"zona":44
}
]